{
  "asset": {
    "version": "0.0"
  },
  "properties": {
    "GebaeudeStatus": {
      "minimum": 1,
      "maximum": 1
    },
    "QualitaetStatus": {
      "minimum": 0,
      "maximum": 2
    },
    "Region": {
      "minimum": 7,
      "maximum": 9
    },
    "Geomtype": {
      "minimum": 1,
      "maximum": 2
    },
    "volume": {
      "minimum": 15.915898695075144,
      "maximum": 165841.45010289713
    },
    "footprint": {
      "minimum": 19.697021484375,
      "maximum": 9013.4912109375
    }
  },
  "geometricError": 99,
  "root": {
    "refine": "ADD",
    "boundingVolume": {
      "region": [
        0.14857531857249076,
        0.8268487999304815,
        0.14874911197270962,
        0.8268741254042771,
        -79.69525792278922,
        909.156353903399
      ]
    },
    "geometricError": 0,
    "content": {
      "url": "full.b3dm"
    }
  }
}